ignoreme,name,min,max,vehicle,identity,rules,opposed
Alternate ID,2,9999,false,true
Ambidextrous,2,2,false,false
Animal Antipathy,-1,-1,false,false,,Animal Empathy
Animal Empathy,1,1,false,false,,Animal Antipathy
Attractive,2,2,false,true,,Unattractive
Bloodmark,-5,-1,false,true
Citizenship,2,2,false,true,Affiliation:IS
Trueborn,2,2,false,false,Affiliation:Clan
Combat Paralysis,-4,-4,false,false,,Combat Sense
Combat Sense,4,4,false,false,,Combat Paralysis
Compulsion/Adder Arrogance,-5,-1,false,false
Compulsion/Addiction/Alcohol,-5,-1,false,false
Compulsion/Addiction/Cannabis,-5,-1,false,false
Compulsion/Addiction/Heroin,-5,-1,false,false
Compulsion/Addiction/Codeine,-5,-1,false,false
Compulsion/Addiction/Barbiturates,-5,-1,false,false
Compulsion/Addiction/SedateMaxx,-5,-1,false,false
Compulsion/Addiction/BattleStun,-5,-1,false,false
Compulsion/Addiction/Caffeine,-5,-1,false,false
Compulsion/Addiction/Nicotine,-5,-1,false,false
Compulsion/Addiction/Cocaine,-5,-1,false,false
Compulsion/Addiction/Amphetamines,-5,-1,false,false
Compulsion/Addiction/Methamphetamines,-5,-1,false,false
Compulsion/Addiction/K-Z,-5,-1,false,false
Compulsion/Addiction/X-Quick,-5,-1,false,false
Compulsion/Addiction/Peyote,-5,-1,false,false
Compulsion/Addiction/LSD,-5,-1,false,false
Compulsion/Addiction/PCP,-5,-1,false,false
Compulsion/Addiction/Psilocybin,-5,-1,false,false
Compulsion/Addiction/Ingrot Venom,-5,-1,false,false
Compulsion/Addiction/Necrosia,-5,-1,false,false
Compulsion/Addiction/Quickstim,-5,-1,false,false
Compulsion/Addiction/Rage,-5,-1,false,false
Compulsion/Addiction/LD-512,-5,-1,false,false
Compulsion/Addiction/Spazz,-5,-1,false,false
Compulsion/Addiction/ZZZZZ,-5,-1,false,false
Compulsion/Arrogance,-5,-1,false,false
Compulsion/Atrean Opponent,-5,-1,false,false
Compulsion/Blood Spirit Fanaticism,-5,-1,false,false
Compulsion/Burrock Forever,-5,-1,false,false
Compulsion/Castilian Honor Code,-5,-1,false,false
Compulsion/Clan Honor,-5,-1,false,false
Compulsion/Distrust Federated Suns,-5,-1,false,false
Compulsion/Distrust Lyrans,-5,-1,false,false
Compulsion/Distrust of Inner Sphere,-5,-1,false,false
Compulsion/Distrust of Non-Terrans,-5,-1,false,false
Compulsion/Falcon Pride,-5,-1,false,false
Compulsion/Fire Mandrill Fanaticism,-5,-1,false,false
Compulsion/Gambling,-5,-1,false,false
Compulsion/Greedy,-5,-1,false,false
Compulsion/Hatred of Authority,-5,-1,false,false
Compulsion/Hatred of Capellan Confederation,-5,-1,false,false
Compulsion/Hatred of Clans,-5,-1,false,false
Compulsion/Hatred of ComStar,-5,-1,false,false
Compulsion/Hatred of Draconis Combine,-5,-1,false,false
Compulsion/Hatred of Federated Suns,-5,-1,false,false
Compulsion/Hatred of Ghost Bears,-5,-1,false,false
Compulsion/Hatred of Hell's Horses,-5,-1,false,false
Compulsion/Hatred of House Liao,-5,-1,false,false
Compulsion/Hatred of House Marik,-5,-1,false,false
Compulsion/Hatred of Invading Clans,-5,-1,false,false
Compulsion/Hatred of Jade Falcons,-5,-1,false,false
Compulsion/Hatred of Snow Ravens,-5,-1,false,false
Compulsion/Hatred of Star Adder,-5,-1,false,false
Compulsion/Hatred of Steel Vipers,-5,-1,false,false
Compulsion/Hatred of Umayyad,-5,-1,false,false
Compulsion/Hatred of Word of Blake,-5,-1,false,false
Compulsion/Kindraa Fanaticism,-5,-1,false,false
Compulsion/Loyalty to Crime Boss,-5,-1,false,false
Compulsion/Loyalty to Draconis Combine,-5,-1,false,false
Compulsion/Loyalty to House Kurita,-5,-1,false,false
Compulsion/Necrosia Addiction,-5,-1,false,false
Compulsion/Nostalgic,-5,-1,false,false
Compulsion/Paranoia,-5,-1,false,false
Compulsion/Paranoid of Combine Government,-5,-1,false,false
Compulsion/Rasalhague Pride,-5,-1,false,false
Compulsion/Raven Pride,-5,-1,false,false
Compulsion/Religious Faith,-5,-1,false,false
Compulsion/Stubborn,-5,-1,false,false
Compulsion/Traumatic Memories,-5,-1,false,false
Compulsion/Wolf Pride,-5,-1,false,false
Compulsion/Xenophobia,-5,-1,false,false
Compulsion/ZZZZZ,-5,-1,false,false
Connections,1,10,false,true
Custom Vehicle,1,6,true,false
Dark Secret,-5,-1,false,true
Dependents,-2,-1,false,true
Design Quirk/Accurate Weapon,1,5,true,false
Design Quirk/Anti-Air Targeting,1,5,true,false
Design Quirk/Atmospheric Flyer,3,3,true,false
Design Quirk/Battle Computer,5,5,true,false
Design Quirk/Combat Computer,3,3,true,false
Design Quirk/Command BattleMech,2,2,true,false
Design Quirk/Cowl,4,4,true,false
Design Quirk/Easy Maintenance,1,1,true,false
Design Quirk/Easy to Pilot,2,2,true,false
Design Quirk/Extended Torso Twist,3,3,true,false
Design Quirk/Fast Reloader,1,1,true,false
Design Quirk/Hyper-Extending Actuators,1,1,true,false
Design Quirk/Improved Cooling Jacket,1,1,true,false
Design Quirk/Improved Communications,2,2,true,false
Design Quirk/Improved Life Support,1,1,true,false
Design Quirk/Improved Sensors,3,3,true,false
Design Quirk/Improved Targeting-Short,3,3,true,false
Design Quirk/Improved Targeting-Medium,4,4,true,false
Design Quirk/Improved Targeting-Long,5,5,true,false
Design Quirk/Internal Bomb Bay,3,3,true,false
Design Quirk/Modular Weapons,1,1,true,false
Design Quirk/Multi-Trac Targeting,2,2,true,false
Design Quirk/Narrow-Low Profile,3,3,true,false
Design Quirk/Protected Actuators,1,1,true,false
Design Quirk/Reinforced Legs,1,1,true,false
Design Quirk/Rumble Seat,0,0,true,false
Design Quirk/Searchlight,1,1,true,false
Design Quirk/Stable,2,2,true,false
Design Quirk/Trailer Hitch,1,1,true,false
Design Quirk/Variable-Range Targeting,1,5,true,false
Design Quirk/VTOL Rotor Arrangement,1,1,true,false
Design Quirk/Ammo Feed Problem,-1,-1,true,false
Design Quirk/Atmospheric Flight Instability,-2,-2,true,false
Design Quirk/Bad Reputation,-1,-1,true,false
Design Quirk/Cooling System Flaw,-3,-3,true,false
Design Quirk/Cramped Cockpit,-2,-2,true,false
Design Quirk/Difficult Ejection,-1,-1,true,false
Design Quirk/Difficult Maintenance,-1,-1,true,false
Design Quirk/EM Interference,-1,-1,true,false
Design Quirk/Exposed Actuators,-1,-1,true,false
Design Quirk/Exposed Weapon Linkage,-2,-2,true,false
Design Quirk/Fragile Fuel Tank,-2,-2,true,false
Design Quirk/Gas Hog,-2,-2,true,false
Design Quirk/Hard to Pilot,-2,-2,true,false
Design Quirk/Inaccurate Weapon,-1,-5,true,false
Design Quirk/No Arms-Minimal Arms,-2,-2,true,false
Design Quirk/No Cooling Jacket,-2,-2,true,false
Design Quirk/No Ejection System,-2,-2,true,false
Design Quirk/No Torso Twist,-2,-2,true,false
Design Quirk/Non-Standard Parts,-1,-1,true,false
Design Quirk/Poor Cooling Jacket,-1,-1,true,false
Design Quirk/Poor Performance,-3,-3,true,false
Design Quirk/Poor Targeting-Short,-2,-2,true,false
Design Quirk/Poor Targeting-Medium,-3,-3,true,false
Design Quirk/Poor Targeting-Long,-4,-4,true,false
Design Quirk/Poor Workmanship,-1,-1,true,false
Design Quirk/Prototype,-2,-2,true,false
Design Quirk/Sensor Ghosts,-2,-2,true,false
Design Quirk/Unbalanced,-1,-1,true,false
Design Quirk/Un-Streamlined,-2,-2,true,false
Design Quirk/Weak Head Armor,-1,-5,true,false
Design Quirk/Weak Legs,-1,-1,true,false
Design Quirk/Weak Undercarriage,-1,-1,true,false
Enemy/ComStar,-10,-1,false,true
Enemy/Draconis Combine,-10,-1,false,true
Enemy/Rival Kindraa,-10,-1,false,true
Enemy/The Clans,-10,-1,false,true
Enemy/Word of Blake,-10,-1,false,true
Enemy/ZZZZZ,-10,-1,false,true
Equipped,-1,8,false,true
Exceptional Attribute/Body,2,2,false,false
Exceptional Attribute/Charisma,2,2,false,false
Exceptional Attribute/Dexterity,2,2,false,false
Exceptional Attribute/Edge,2,2,false,false
Exceptional Attribute/Intelligence,2,2,false,false
Exceptional Attribute/Reflexes,2,2,false,false
Exceptional Attribute/Strength,2,2,false,false
Exceptional Attribute/Willpower,2,2,false,false
Extra Income,-10,10,false,true
Fast Learner,3,3,false,false,,Slow Learner
Field Aptitude/Clan Fighter Pilot,0,0,false,false,NoBuy
Field Aptitude/Elemental,0,0,false,false,NoBuy
Field Aptitude/Clan Mechwarrior,0,0,false,false,NoBuy
Fit,2,2,false,false,,Handicap
G-Tolerance,1,1,false,false
Glass Jaw,-3,-3,false,false,,Toughness
Good Hearing,1,1,false,false,,Poor Hearing
Good Vision,1,1,false,false,,Poor Vision
Gregarious,1,1,false,false,,Introvert
Gremlins,-3,-3,false,false,,Tech Empathy
Handicap/ZZZZZ,-5,-1,false,false,,Fit
Illiterate,-1,-1,false,false,,Skill:Language/Any:4:Remove
Impatient,-1,-1,false,false,,Patient
Implant/E-I Neural Implant,2,2,false,false,NoBuy
Prosthetic/Right Arm,1,6,false,false,NoBuy,Trait:Lost Limb/Right Arm
Prosthetic/Left Arm,1,6,false,false,NoBuy,Trait:Lost Limb/Left Arm
Prosthetic/Right Leg,1,6,false,false,NoBuy,Trait:Lost Limb/Right Leg
Prosthetic/Left Leg,1,6,false,false,NoBuy,Trait:Lost Limb/Left Leg
Prosthetic/Right Ear,1,6,false,false,NoBuy,Trait:Lost Limb/Right Ear
Prosthetic/Left Ear,1,6,false,false,NoBuy,Trait:Lost Limb/Left Ear
Prosthetic/Right Eye,1,6,false,false,NoBuy,Trait:Lost Limb/Right Eye
Prosthetic/Left Eye,1,6,false,false,NoBuy,Trait:Lost Limb/Left Eye
In For Life/Capellan Confederation,-3,-3,false,true
In For Life/Clan Cloister,-3,-3,false,true
In For Life/Clan Watch,-3,-3,false,true
In For Life/ComStar,-3,-3,false,true
In For Life/DMI,-3,-3,false,true
In For Life/Draconis Combine,-3,-3,false,true
In For Life/Federated Suns,-3,-3,false,true
In For Life/Free Rasalhague Republic,-3,-3,false,true
In For Life/Free Worlds League,-3,-3,false,true
In For Life/Goliath Scorpion,-3,-3,false,true
In For Life/House Davion,-3,-3,false,true
In For Life/House Liao,-3,-3,false,true
In For Life/House Kurita,-3,-3,false,true
In For Life/House Marik,-3,-3,false,true
In For Life/House Steiner,-3,-3,false,true
In For Life/Internal Security Force,-3,-3,false,true
In For Life/LIC,-3,-3,false,true
In For Life/Lyran Alliance,-3,-3,false,true
In For Life/MIIO,-3,-3,false,true
In For Life/Maskirovka,-3,-3,false,true
In For Life/MIMIR,-3,-3,false,true
In For Life/ROM,-3,-3,false,true
In For Life/SAFE,-3,-3,false,true
In For Life/Word of Blake,-3,-3,false,true
In For Life/ZZZZZ,-3,-3,false,true
Introvert,-1,-1,false,false,,Gregarious
Lost Limb/Right Arm,-5,-1,false,false,NoBuy
Lost Limb/Left Arm,-5,-1,false,false,NoBuy
Lost Limb/Right Leg,-5,-1,false,false,NoBuy
Lost Limb/Left Leg,-5,-1,false,false,NoBuy
Lost Limb/Right Ear,-5,-1,false,false,NoBuy
Lost Limb/Left Ear,-5,-1,false,false,NoBuy
Lost Limb/Right Eye,-5,-1,false,false,NoBuy
Lost Limb/Left Eye,-5,-1,false,false,NoBuy
Lost Limb/ZZZZZ,-5,-1,false,false
Natural Aptitude/[SKILL],3,5,false,false
Pain Resistance,3,3,false,false
Patient,1,1,false,false,,Impatient
Poison Resistance,2,2,false,false
Poor Hearing,-5,-1,false,false,,Good Hearing
Poor Vision,-9,-2,false,false,,Good Vision
Property,1,10,false,true
Reputation,-5,5,false,true
Sixth Sense,4,4,false,false
Slow Learner,-3,-3,false,false,,Fast Learner
Tech Empathy,3,3,false,false,,Gremlins
Thick-Skinned,1,1,false,false,,Thin-Skinned
Thin-Skinned,-1,-1,false,false,,Thick-Skinned
Title/ZZZZZ,3,10,false,true,Affiliation:IS
Bloodname,3,10,false,false,Phenotype:Trueborn
Toughness,3,3,false,false,,Glass Jaw
Transient Disorientation Syndrome,-1,-1,false,false
Unattractive,-1,-1,false,true,,Attractive
Unlucky,-10,-2,false,false
Vehicle Level,1,12,false,true
Wealth,-1,10,false,true